…
``` r
dat5 <- 
shot_data %>%
  group_by(shot_distance) %>%
  select(shot_distance, shot_made_flag) %>%
  summarise(
    made_shot_prop = length(shot_made_flag[shot_made_flag == "made shot"])/n()) %>%
  arrange(shot_distance)
dat5
```

    ## # A tibble: 56 x 2
    ##    shot_distance made_shot_prop
    ##            <int>          <dbl>
    ##  1             0          0.841
    ##  2             1          0.668
    ##  3             2          0.534
    ##  4             3          0.373
    ##  5             4          0.411
    ##  6             5          0.286
    ##  7             6          0.396
    ##  8             7          0.395
    ##  9             8          0.463
    ## 10             9          0.321
    ## # ... with 46 more rows
…
-   What distances tend to have a percentage (of making a shot) of 50% or more?
    Distances around 0, 1, 2, 12, 16, 18, 21, 30 and 51 tend to have a shot percentage of 50% or more.

``` r
dat6 <- 
shot_data %>%
  group_by(name, minute, period) %>%
  select(name, minute, period) %>%
  summarise(
    shots = length(minute))
dat6
```

    ## # A tibble: 233 x 4
    ## # Groups:   name, minute [?]
    ##    name           minute period shots
    ##    <chr>           <int>  <int> <int>
    ##  1 Andre Iguadala      4      1     1
    ##  2 Andre Iguadala      5      1     1
    ##  3 Andre Iguadala      6      1     1
    ##  4 Andre Iguadala      7      1     7
    ##  5 Andre Iguadala      8      1    10
    ##  6 Andre Iguadala      9      1    11
    ##  7 Andre Iguadala     10      1    17
    ##  8 Andre Iguadala     11      1    10
    ##  9 Andre Iguadala     12      1    23
    ## 10 Andre Iguadala     13      2    10
    ## # ... with 223 more rows
…
